Lab8_Verification.sim/sim_1/behav/xsim/simulate.log
Time resolution is 1 ps
T=0.00 ns [base_test] Applying Reset
T=95.00 ns [base_test] Starting Test
T=145.00 ns [DRV] Starting driver...
T=145.00 ns [DRV] Creating new m_transaction object.
T=145.00 ns [DRV] Depth=1024 Window=8
T=145.00 ns [MON] Starting monitor...
T=145.00 ns [SCB] Depth=1024 Window=8
T=145.00 ns [SCB] Expecting 1017 outputs
T=255.00 ns [SCB] MISMATCH @0: got 627, expected 855 for values: 1284, 90, 590, 386, 1222, 1450, 820, 1005 from BRAM addresses: 0, 1, 2, 3, 4, 5, 6, 7
T=265.00 ns [SCB] MISMATCH @1: got 730, expected 784 for values: 90, 590, 386, 1222, 1450, 820, 1005, 710 from BRAM addresses: 1, 2, 3, 4, 5, 6, 7, 8
T=275.00 ns [SCB] MISMATCH @2: got 855, expected 845 for values: 590, 386, 1222, 1450, 820, 1005, 710, 580 from BRAM addresses: 2, 3, 4, 5, 6, 7, 8, 9
T=285.00 ns [SCB] MISMATCH @3: got 784, expected 925 for values: 386, 1222, 1450, 820, 1005, 710, 580, 1231 from BRAM addresses: 3, 4, 5, 6, 7, 8, 9, 10
T=295.00 ns [SCB] MISMATCH @4: got 845, expected 1014 for values: 1222, 1450, 820, 1005, 710, 580, 1231, 1101 from BRAM addresses: 4, 5, 6, 7, 8, 9, 10, 11
T=305.00 ns [SCB] MISMATCH @5: got 925, expected 909 for values: 1450, 820, 1005, 710, 580, 1231, 1101, 378 from BRAM addresses: 5, 6, 7, 8, 9, 10, 11, 12
T=315.00 ns [SCB] MISMATCH @6: got 1014, expected 796 for values: 820, 1005, 710, 580, 1231, 1101, 378, 550 from BRAM addresses: 6, 7, 8, 9, 10, 11, 12, 13
T=325.00 ns [SCB] MISMATCH @7: got 909, expected 835 for values: 1005, 710, 580, 1231, 1101, 378, 550, 1125 from BRAM addresses: 7, 8, 9, 10, 11, 12, 13, 14
T=335.00 ns [SCB] MISMATCH @8: got 796, expected 741 for values: 710, 580, 1231, 1101, 378, 550, 1125, 257 from BRAM addresses: 8, 9, 10, 11, 12, 13, 14, 15
T=345.00 ns [SCB] MISMATCH @9: got 835, expected 773 for values: 580, 1231, 1101, 378, 550, 1125, 257, 969 from BRAM addresses: 9, 10, 11, 12, 13, 14, 15, 16
T=355.00 ns [SCB] MISMATCH @10: got 741, expected 808 for values: 1231, 1101, 378, 550, 1125, 257, 969, 855 from BRAM addresses: 10, 11, 12, 13, 14, 15, 16, 17
T=365.00 ns [SCB] MISMATCH @11: got 773, expected 804 for values: 1101, 378, 550, 1125, 257, 969, 855, 1198 from BRAM addresses: 11, 12, 13, 14, 15, 16, 17, 18
T=375.00 ns [SCB] MISMATCH @12: got 808, expected 814 for values: 378, 550, 1125, 257, 969, 855, 1198, 1187 from BRAM addresses: 12, 13, 14, 15, 16, 17, 18, 19
T=385.00 ns [SCB] MISMATCH @13: got 804, expected 839 for values: 550, 1125, 257, 969, 855, 1198, 1187, 574 from BRAM addresses: 13, 14, 15, 16, 17, 18, 19, 20
T=395.00 ns [SCB] MISMATCH @14: got 814, expected 873 for values: 1125, 257, 969, 855, 1198, 1187, 574, 822 from BRAM addresses: 14, 15, 16, 17, 18, 19, 20, 21
T=405.00 ns [SCB] MISMATCH @15: got 839, expected 809 for values: 257, 969, 855, 1198, 1187, 574, 822, 613 from BRAM addresses: 15, 16, 17, 18, 19, 20, 21, 22
T=415.00 ns [SCB] MISMATCH @16: got 873, expected 866 for values: 969, 855, 1198, 1187, 574, 822, 613, 713 from BRAM addresses: 16, 17, 18, 19, 20, 21, 22, 23
T=425.00 ns [SCB] MISMATCH @17: got 809, expected 748 for values: 855, 1198, 1187, 574, 822, 613, 713, 25 from BRAM addresses: 17, 18, 19, 20, 21, 22, 23, 24
T=435.00 ns [SCB] MISMATCH @18: got 866, expected 764 for values: 1198, 1187, 574, 822, 613, 713, 25, 980 from BRAM addresses: 18, 19, 20, 21, 22, 23, 24, 25
T=445.00 ns [SCB] MISMATCH @19: got 748, expected 645 for values: 1187, 574, 822, 613, 713, 25, 980, 248 from BRAM addresses: 19, 20, 21, 22, 23, 24, 25, 26
T=455.00 ns [SCB] MISMATCH @20: got 764, expected 570 for values: 574, 822, 613, 713, 25, 980, 248, 589 from BRAM addresses: 20, 21, 22, 23, 24, 25, 26, 27
T=465.00 ns [SCB] MISMATCH @21: got 645, expected 517 for values: 822, 613, 713, 25, 980, 248, 589, 150 from BRAM addresses: 21, 22, 23, 24, 25, 26, 27, 28
T=475.00 ns [SCB] MISMATCH @22: got 570, expected 521 for values: 613, 713, 25, 980, 248, 589, 150, 851 from BRAM addresses: 22, 23, 24, 25, 26, 27, 28, 29
T=485.00 ns [SCB] MISMATCH @23: got 517, expected 503 for values: 713, 25, 980, 248, 589, 150, 851, 471 from BRAM addresses: 23, 24, 25, 26, 27, 28, 29, 30
T=495.00 ns [SCB] MISMATCH @24: got 521, expected 434 for values: 25, 980, 248, 589, 150, 851, 471, 165 from BRAM addresses: 24, 25, 26, 27, 28, 29, 30, 31
T=505.00 ns [SCB] MISMATCH @25: got 503, expected 556 for values: 980, 248, 589, 150, 851, 471, 165, 1001 from BRAM addresses: 25, 26, 27, 28, 29, 30, 31, 32
T=515.00 ns [SCB] MISMATCH @26: got 434, expected 523 for values: 248, 589, 150, 851, 471, 165, 1001, 709 from BRAM addresses: 26, 27, 28, 29, 30, 31, 32, 33
T=525.00 ns [SCB] MISMATCH @27: got 556, expected 668 for values: 589, 150, 851, 471, 165, 1001, 709, 1415 from BRAM addresses: 27, 28, 29, 30, 31, 32, 33, 34
T=535.00 ns [SCB] MISMATCH @28: got 523, expected 719 for values: 150, 851, 471, 165, 1001, 709, 1415, 990 from BRAM addresses: 28, 29, 30, 31, 32, 33, 34, 35
T=545.00 ns [SCB] MISMATCH @29: got 668, expected 791 for values: 851, 471, 165, 1001, 709, 1415, 990, 730 from BRAM addresses: 29, 30, 31, 32, 33, 34, 35, 36
T=555.00 ns [SCB] MISMATCH @30: got 719, expected 714 for values: 471, 165, 1001, 709, 1415, 990, 730, 234 from BRAM addresses: 30, 31, 32, 33, 34, 35, 36, 37
T=565.00 ns [SCB] MISMATCH @31: got 791, expected 779 for values: 165, 1001, 709, 1415, 990, 730, 234, 995 from BRAM addresses: 31, 32, 33, 34, 35, 36, 37, 38
T=575.00 ns [SCB] MISMATCH @32: got 714, expected 769 for values: 1001, 709, 1415, 990, 730, 234, 995, 79 from BRAM addresses: 32, 33, 34, 35, 36, 37, 38, 39
T=585.00 ns [SCB] MISMATCH @33: got 779, expected 825 for values: 709, 1415, 990, 730, 234, 995, 79, 1453 from BRAM addresses: 33, 34, 35, 36, 37, 38, 39, 40
T=595.00 ns [SCB] MISMATCH @34: got 769, expected 831 for values: 1415, 990, 730, 234, 995, 79, 1453, 758 from BRAM addresses: 34, 35, 36, 37, 38, 39, 40, 41
T=605.00 ns [SCB] MISMATCH @35: got 825, expected 684 for values: 990, 730, 234, 995, 79, 1453, 758, 238 from BRAM addresses: 35, 36, 37, 38, 39, 40, 41, 42
T=615.00 ns [SCB] MISMATCH @36: got 831, expected 627 for values: 730, 234, 995, 79, 1453, 758, 238, 531 from BRAM addresses: 36, 37, 38, 39, 40, 41, 42, 43
T=625.00 ns [SCB] MISMATCH @37: got 684, expected 658 for values: 234, 995, 79, 1453, 758, 238, 531, 982 from BRAM addresses: 37, 38, 39, 40, 41, 42, 43, 44
T=635.00 ns [SCB] MISMATCH @38: got 627, expected 679 for values: 995, 79, 1453, 758, 238, 531, 982, 402 from BRAM addresses: 38, 39, 40, 41, 42, 43, 44, 45
T=645.00 ns [SCB] MISMATCH @39: got 658, expected 630 for values: 79, 1453, 758, 238, 531, 982, 402, 600 from BRAM addresses: 39, 40, 41, 42, 43, 44, 45, 46
T=655.00 ns [SCB] MISMATCH @40: got 679, expected 737 for values: 1453, 758, 238, 531, 982, 402, 600, 934 from BRAM addresses: 40, 41, 42, 43, 44, 45, 46, 47
T=665.00 ns [SCB] MISMATCH @41: got 630, expected 699 for values: 758, 238, 531, 982, 402, 600, 934, 1150 from BRAM addresses: 41, 42, 43, 44, 45, 46, 47, 48
T=675.00 ns [SCB] MISMATCH @42: got 737, expected 689 for values: 238, 531, 982, 402, 600, 934, 1150, 677 from BRAM addresses: 42, 43, 44, 45, 46, 47, 48, 49
T=685.00 ns [SCB] MISMATCH @43: got 699, expected 841 for values: 531, 982, 402, 600, 934, 1150, 677, 1455 from BRAM addresses: 43, 44, 45, 46, 47, 48, 49, 50
T=695.00 ns [SCB] MISMATCH @44: got 689, expected 937 for values: 982, 402, 600, 934, 1150, 677, 1455, 1302 from BRAM addresses: 44, 45, 46, 47, 48, 49, 50, 51
T=705.00 ns [SCB] MISMATCH @45: got 841, expected 827 for values: 402, 600, 934, 1150, 677, 1455, 1302, 98 from BRAM addresses: 45, 46, 47, 48, 49, 50, 51, 52
T=715.00 ns [SCB] MISMATCH @46: got 937, expected 827 for values: 600, 934, 1150, 677, 1455, 1302, 98, 403 from BRAM addresses: 46, 47, 48, 49, 50, 51, 52, 53
T=725.00 ns [SCB] MISMATCH @47: got 827, expected 825 for values: 934, 1150, 677, 1455, 1302, 98, 403, 584 from BRAM addresses: 47, 48, 49, 50, 51, 52, 53, 54
T=735.00 ns [SCB] MISMATCH @48: got 827, expected 863 for values: 1150, 677, 1455, 1302, 98, 403, 584, 1238 from BRAM addresses: 48, 49, 50, 51, 52, 53, 54, 55
T=745.00 ns [SCB] MISMATCH @49: got 825, expected 732 for values: 677, 1455, 1302, 98, 403, 584, 1238, 99 from BRAM addresses: 49, 50, 51, 52, 53, 54, 55, 56
T=755.00 ns [SCB] MISMATCH @50: got 863, expected 798 for values: 1455, 1302, 98, 403, 584, 1238, 99, 1209 from BRAM addresses: 50, 51, 52, 53, 54, 55, 56, 57
T=765.00 ns [SCB] MISMATCH @51: got 732, expected 727 for values: 1302, 98, 403, 584, 1238, 99, 1209, 888 from BRAM addresses: 51, 52, 53, 54, 55, 56, 57, 58
T=775.00 ns [SCB] MISMATCH @52: got 798, expected 588 for values: 98, 403, 584, 1238, 99, 1209, 888, 187 from BRAM addresses: 52, 53, 54, 55, 56, 57, 58, 59
T=785.00 ns [SCB] MISMATCH @53: got 727, expected 673 for values: 403, 584, 1238, 99, 1209, 888, 187, 781 from BRAM addresses: 53, 54, 55, 56, 57, 58, 59, 60
T=795.00 ns [SCB] MISMATCH @54: got 588, expected 703 for values: 584, 1238, 99, 1209, 888, 187, 781, 642 from BRAM addresses: 54, 55, 56, 57, 58, 59, 60, 61
T=805.00 ns [SCB] MISMATCH @55: got 673, expected 704 for values: 1238, 99, 1209, 888, 187, 781, 642, 594 from BRAM addresses: 55, 56, 57, 58, 59, 60, 61, 62
T=815.00 ns [SCB] MISMATCH @56: got 703, expected 556 for values: 99, 1209, 888, 187, 781, 642, 594, 49 from BRAM addresses: 56, 57, 58, 59, 60, 61, 62, 63
T=825.00 ns [SCB] MISMATCH @57: got 704, expected 652 for values: 1209, 888, 187, 781, 642, 594, 49, 869 from BRAM addresses: 57, 58, 59, 60, 61, 62, 63, 64
T=835.00 ns [SCB] MISMATCH @58: got 556, expected 582 for values: 888, 187, 781, 642, 594, 49, 869, 652 from BRAM addresses: 58, 59, 60, 61, 62, 63, 64, 65
T=845.00 ns [SCB] MISMATCH @59: got 652, expected 500 for values: 187, 781, 642, 594, 49, 869, 652, 226 from BRAM addresses: 59, 60, 61, 62, 63, 64, 65, 66
T=855.00 ns [SCB] MISMATCH @60: got 582, expected 579 for values: 781, 642, 594, 49, 869, 652, 226, 819 from BRAM addresses: 60, 61, 62, 63, 64, 65, 66, 67
T=865.00 ns [SCB] MISMATCH @61: got 500, expected 623 for values: 642, 594, 49, 869, 652, 226, 819, 1133 from BRAM addresses: 61, 62, 63, 64, 65, 66, 67, 68
T=875.00 ns [SCB] MISMATCH @62: got 579, expected 727 for values: 594, 49, 869, 652, 226, 819, 1133, 1481 from BRAM addresses: 62, 63, 64, 65, 66, 67, 68, 69
T=885.00 ns [SCB] MISMATCH @63: got 623, expected 742 for values: 49, 869, 652, 226, 819, 1133, 1481, 708 from BRAM addresses: 63, 64, 65, 66, 67, 68, 69, 70
T=895.00 ns [SCB] MISMATCH @64: got 727, expected 779 for values: 869, 652, 226, 819, 1133, 1481, 708, 350 from BRAM addresses: 64, 65, 66, 67, 68, 69, 70, 71
T=905.00 ns [SCB] MISMATCH @65: got 742, expected 731 for values: 652, 226, 819, 1133, 1481, 708, 350, 481 from BRAM addresses: 65, 66, 67, 68, 69, 70, 71, 72
T=915.00 ns [SCB] MISMATCH @66: got 779, expected 662 for values: 226, 819, 1133, 1481, 708, 350, 481, 103 from BRAM addresses: 66, 67, 68, 69, 70, 71, 72, 73
T=925.00 ns [SCB] MISMATCH @67: got 731, expected 779 for values: 819, 1133, 1481, 708, 350, 481, 103, 1159 from BRAM addresses: 67, 68, 69, 70, 71, 72, 73, 74
T=935.00 ns [SCB] MISMATCH @68: got 662, expected 858 for values: 1133, 1481, 708, 350, 481, 103, 1159, 1453 from BRAM addresses: 68, 69, 70, 71, 72, 73, 74, 75
T=945.00 ns [SCB] MISMATCH @69: got 779, expected 811 for values: 1481, 708, 350, 481, 103, 1159, 1453, 753 from BRAM addresses: 69, 70, 71, 72, 73, 74, 75, 76
T=955.00 ns [SCB] MISMATCH @70: got 858, expected 671 for values: 708, 350, 481, 103, 1159, 1453, 753, 366 from BRAM addresses: 70, 71, 72, 73, 74, 75, 76, 77
T=965.00 ns [SCB] MISMATCH @71: got 811, expected 620 for values: 350, 481, 103, 1159, 1453, 753, 366, 302 from BRAM addresses: 71, 72, 73, 74, 75, 76, 77, 78
T=975.00 ns [SCB] MISMATCH @72: got 671, expected 711 for values: 481, 103, 1159, 1453, 753, 366, 302, 1073 from BRAM addresses: 72, 73, 74, 75, 76, 77, 78, 79
T=985.00 ns [SCB] MISMATCH @73: got 620, expected 792 for values: 103, 1159, 1453, 753, 366, 302, 1073, 1130 from BRAM addresses: 73, 74, 75, 76, 77, 78, 79, 80
T=995.00 ns [SCB] MISMATCH @74: got 711, expected 942 for values: 1159, 1453, 753, 366, 302, 1073, 1130, 1300 from BRAM addresses: 74, 75, 76, 77, 78, 79, 80, 81
T=1005.00 ns [SCB] MISMATCH @75: got 792, expected 906 for values: 1453, 753, 366, 302, 1073, 1130, 1300, 874 from BRAM addresses: 75, 76, 77, 78, 79, 80, 81, 82
T=1015.00 ns [SCB] MISMATCH @76: got 942, expected 753 for values: 753, 366, 302, 1073, 1130, 1300, 874, 231 from BRAM addresses: 76, 77, 78, 79, 80, 81, 82, 83
T=1025.00 ns [SCB] MISMATCH @77: got 906, expected 745 for values: 366, 302, 1073, 1130, 1300, 874, 231, 685 from BRAM addresses: 77, 78, 79, 80, 81, 82, 83, 84
T=1035.00 ns [SCB] MISMATCH @78: got 753, expected 826 for values: 302, 1073, 1130, 1300, 874, 231, 685, 1015 from BRAM addresses: 78, 79, 80, 81, 82, 83, 84, 85
T=1045.00 ns [SCB] MISMATCH @79: got 745, expected 931 for values: 1073, 1130, 1300, 874, 231, 685, 1015, 1144 from BRAM addresses: 79, 80, 81, 82, 83, 84, 85, 86
T=1055.00 ns [SCB] MISMATCH @80: got 826, expected 836 for values: 1130, 1300, 874, 231, 685, 1015, 1144, 314 from BRAM addresses: 80, 81, 82, 83, 84, 85, 86, 87
T=1065.00 ns [SCB] MISMATCH @81: got 931, expected 778 for values: 1300, 874, 231, 685, 1015, 1144, 314, 664 from BRAM addresses: 81, 82, 83, 84, 85, 86, 87, 88
T=1075.00 ns [SCB] MISMATCH @82: got 836, expected 764 for values: 874, 231, 685, 1015, 1144, 314, 664, 1187 from BRAM addresses: 82, 83, 84, 85, 86, 87, 88, 89
T=1085.00 ns [SCB] MISMATCH @83: got 778, expected 703 for values: 231, 685, 1015, 1144, 314, 664, 1187, 384 from BRAM addresses: 83, 84, 85, 86, 87, 88, 89, 90
T=1095.00 ns [SCB] MISMATCH @84: got 764, expected 841 for values: 685, 1015, 1144, 314, 664, 1187, 384, 1339 from BRAM addresses: 84, 85, 86, 87, 88, 89, 90, 91
T=1105.00 ns [SCB] MISMATCH @85: got 703, expected 927 for values: 1015, 1144, 314, 664, 1187, 384, 1339, 1372 from BRAM addresses: 85, 86, 87, 88, 89, 90, 91, 92
T=1115.00 ns [SCB] MISMATCH @86: got 841, expected 971 for values: 1144, 314, 664, 1187, 384, 1339, 1372, 1367 from BRAM addresses: 86, 87, 88, 89, 90, 91, 92, 93
T=1125.00 ns [SCB] MISMATCH @87: got 927, expected 1014 for values: 314, 664, 1187, 384, 1339, 1372, 1367, 1492 from BRAM addresses: 87, 88, 89, 90, 91, 92, 93, 94
T=1135.00 ns [SCB] MISMATCH @88: got 971, expected 1023 for values: 664, 1187, 384, 1339, 1372, 1367, 1492, 384 from BRAM addresses: 88, 89, 90, 91, 92, 93, 94, 95
T=1145.00 ns [SCB] MISMATCH @89: got 1014, expected 950 for values: 1187, 384, 1339, 1372, 1367, 1492, 384, 82 from BRAM addresses: 89, 90, 91, 92, 93, 94, 95, 96
T=1155.00 ns [SCB] MISMATCH @90: got 1023, expected 849 for values: 384, 1339, 1372, 1367, 1492, 384, 82, 375 from BRAM addresses: 90, 91, 92, 93, 94, 95, 96, 97
T=1165.00 ns [SCB] MISMATCH @91: got 950, expected 829 for values: 1339, 1372, 1367, 1492, 384, 82, 375, 222 from BRAM addresses: 91, 92, 93, 94, 95, 96, 97, 98
T=1175.00 ns [SCB] MISMATCH @92: got 849, expected 823 for values: 1372, 1367, 1492, 384, 82, 375, 222, 1293 from BRAM addresses: 92, 93, 94, 95, 96, 97, 98, 99
T=1185.00 ns [SCB] MISMATCH @93: got 829, expected 747 for values: 1367, 1492, 384, 82, 375, 222, 1293, 761 from BRAM addresses: 93, 94, 95, 96, 97, 98, 99, 100
T=1195.00 ns [SCB] MISMATCH @94: got 823, expected 705 for values: 1492, 384, 82, 375, 222, 1293, 761, 1034 from BRAM addresses: 94, 95, 96, 97, 98, 99, 100, 101
T=1205.00 ns [SCB] MISMATCH @95: got 747, expected 540 for values: 384, 82, 375, 222, 1293, 761, 1034, 176 from BRAM addresses: 95, 96, 97, 98, 99, 100, 101, 102
T=1215.00 ns [SCB] MISMATCH @96: got 705, expected 597 for values: 82, 375, 222, 1293, 761, 1034, 176, 833 from BRAM addresses: 96, 97, 98, 99, 100, 101, 102, 103
T=1225.00 ns [SCB] MISMATCH @97: got 540, expected 742 for values: 375, 222, 1293, 761, 1034, 176, 833, 1248 from BRAM addresses: 97, 98, 99, 100, 101, 102, 103, 104
T=1235.00 ns [SCB] MISMATCH @98: got 597, expected 847 for values: 222, 1293, 761, 1034, 176, 833, 1248, 1209 from BRAM addresses: 98, 99, 100, 101, 102, 103, 104, 105
T=1245.00 ns [SCB] MISMATCH @99: got 742, expected 897 for values: 1293, 761, 1034, 176, 833, 1248, 1209, 625 from BRAM addresses: 99, 100, 101, 102, 103, 104, 105, 106
T=1255.00 ns [SCB] MISMATCH @100: got 847, expected 799 for values: 761, 1034, 176, 833, 1248, 1209, 625, 508 from BRAM addresses: 100, 101, 102, 103, 104, 105, 106, 107
T=1265.00 ns [SCB] MISMATCH @101: got 897, expected 861 for values: 1034, 176, 833, 1248, 1209, 625, 508, 1261 from BRAM addresses: 101, 102, 103, 104, 105, 106, 107, 108
T=1275.00 ns [SCB] MISMATCH @102: got 799, expected 831 for values: 176, 833, 1248, 1209, 625, 508, 1261, 791 from BRAM addresses: 102, 103, 104, 105, 106, 107, 108, 109
T=1285.00 ns [SCB] MISMATCH @103: got 861, expected 975 for values: 833, 1248, 1209, 625, 508, 1261, 791, 1331 from BRAM addresses: 103, 104, 105, 106, 107, 108, 109, 110
T=1295.00 ns [SCB] MISMATCH @104: got 831, expected 997 for values: 1248, 1209, 625, 508, 1261, 791, 1331, 1008 from BRAM addresses: 104, 105, 106, 107, 108, 109, 110, 111
T=1305.00 ns [SCB] MISMATCH @105: got 975, expected 885 for values: 1209, 625, 508, 1261, 791, 1331, 1008, 348 from BRAM addresses: 105, 106, 107, 108, 109, 110, 111, 112
T=1315.00 ns [SCB] MISMATCH @106: got 997, expected 790 for values: 625, 508, 1261, 791, 1331, 1008, 348, 455 from BRAM addresses: 106, 107, 108, 109, 110, 111, 112, 113
T=1325.00 ns [SCB] MISMATCH @107: got 885, expected 779 for values: 508, 1261, 791, 1331, 1008, 348, 455, 535 from BRAM addresses: 107, 108, 109, 110, 111, 112, 113, 114
T=1335.00 ns [SCB] MISMATCH @108: got 790, expected 729 for values: 1261, 791, 1331, 1008, 348, 455, 535, 108 from BRAM addresses: 108, 109, 110, 111, 112, 113, 114, 115
T=1345.00 ns [SCB] MISMATCH @109: got 779, expected 623 for values: 791, 1331, 1008, 348, 455, 535, 108, 415 from BRAM addresses: 109, 110, 111, 112, 113, 114, 115, 116
T=1355.00 ns [SCB] MISMATCH @110: got 729, expected 570 for values: 1331, 1008, 348, 455, 535, 108, 415, 365 from BRAM addresses: 110, 111, 112, 113, 114, 115, 116, 117
T=1365.00 ns [SCB] MISMATCH @111: got 623, expected 439 for values: 1008, 348, 455, 535, 108, 415, 365, 285 from BRAM addresses: 111, 112, 113, 114, 115, 116, 117, 118
T=1375.00 ns [SCB] MISMATCH @112: got 570, expected 408 for values: 348, 455, 535, 108, 415, 365, 285, 753 from BRAM addresses: 112, 113, 114, 115, 116, 117, 118, 119
T=1385.00 ns [SCB] MISMATCH @113: got 439, expected 447 for values: 455, 535, 108, 415, 365, 285, 753, 660 from BRAM addresses: 113, 114, 115, 116, 117, 118, 119, 120
T=1395.00 ns [SCB] MISMATCH @114: got 408, expected 491 for values: 535, 108, 415, 365, 285, 753, 660, 810 from BRAM addresses: 114, 115, 116, 117, 118, 119, 120, 121
T=1405.00 ns [SCB] MISMATCH @115: got 447, expected 530 for values: 108, 415, 365, 285, 753, 660, 810, 851 from BRAM addresses: 115, 116, 117, 118, 119, 120, 121, 122
T=1415.00 ns [SCB] MISMATCH @116: got 491, expected 631 for values: 415, 365, 285, 753, 660, 810, 851, 914 from BRAM addresses: 116, 117, 118, 119, 120, 121, 122, 123
T=1425.00 ns [SCB] MISMATCH @117: got 530, expected 604 for values: 365, 285, 753, 660, 810, 851, 914, 194 from BRAM addresses: 117, 118, 119, 120, 121, 122, 123, 124
T=1435.00 ns [SCB] MISMATCH @118: got 631, expected 577 for values: 285, 753, 660, 810, 851, 914, 194, 155 from BRAM addresses: 118, 119, 120, 121, 122, 123, 124, 125
T=1445.00 ns [SCB] MISMATCH @119: got 604, expected 646 for values: 753, 660, 810, 851, 914, 194, 155, 837 from BRAM addresses: 119, 120, 121, 122, 123, 124, 125, 126
T=1455.00 ns [SCB] MISMATCH @120: got 577, expected 639 for values: 660, 810, 851, 914, 194, 155, 837, 693 from BRAM addresses: 120, 121, 122, 123, 124, 125, 126, 127
T=1465.00 ns [SCB] MISMATCH @121: got 646, expected 676 for values: 810, 851, 914, 194, 155, 837, 693, 955 from BRAM addresses: 121, 122, 123, 124, 125, 126, 127, 128
T=1475.00 ns [SCB] MISMATCH @122: got 639, expected 579 for values: 851, 914, 194, 155, 837, 693, 955, 36 from BRAM addresses: 122, 123, 124, 125, 126, 127, 128, 129
T=1485.00 ns [SCB] MISMATCH @123: got 676, expected 486 for values: 914, 194, 155, 837, 693, 955, 36, 106 from BRAM addresses: 123, 124, 125, 126, 127, 128, 129, 130
T=1495.00 ns [SCB] MISMATCH @124: got 579, expected 514 for values: 194, 155, 837, 693, 955, 36, 106, 1139 from BRAM addresses: 124, 125, 126, 127, 128, 129, 130, 131
T=1505.00 ns [SCB] MISMATCH @125: got 486, expected 512 for values: 155, 837, 693, 955, 36, 106, 1139, 181 from BRAM addresses: 125, 126, 127, 128, 129, 130, 131, 132
T=1515.00 ns [SCB] MISMATCH @126: got 514, expected 507 for values: 837, 693, 955, 36, 106, 1139, 181, 112 from BRAM addresses: 126, 127, 128, 129, 130, 131, 132, 133
T=1525.00 ns [SCB] MISMATCH @127: got 512, expected 444 for values: 693, 955, 36, 106, 1139, 181, 112, 331 from BRAM addresses: 127, 128, 129, 130, 131, 132, 133, 134
T=1535.00 ns [SCB] MISMATCH @128: got 507, expected 376 for values: 955, 36, 106, 1139, 181, 112, 331, 155 from BRAM addresses: 128, 129, 130, 131, 132, 133, 134, 135
T=1545.00 ns [SCB] MISMATCH @129: got 444, expected 442 for values: 36, 106, 1139, 181, 112, 331, 155, 1479 from BRAM addresses: 129, 130, 131, 132, 133, 134, 135, 136
T=1555.00 ns [SCB] MISMATCH @130: got 376, expected 575 for values: 106, 1139, 181, 112, 331, 155, 1479, 1098 from BRAM addresses: 130, 131, 132, 133, 134, 135, 136, 137
T=1565.00 ns [SCB] MISMATCH @131: got 442, expected 722 for values: 1139, 181, 112, 331, 155, 1479, 1098, 1284 from BRAM addresses: 131, 132, 133, 134, 135, 136, 137, 138
T=1575.00 ns [SCB] MISMATCH @132: got 575, expected 767 for values: 181, 112, 331, 155, 1479, 1098, 1284, 1499 from BRAM addresses: 132, 133, 134, 135, 136, 137, 138, 139
T=1585.00 ns [SCB] MISMATCH @133: got 722, expected 875 for values: 112, 331, 155, 1479, 1098, 1284, 1499, 1049 from BRAM addresses: 133, 134, 135, 136, 137, 138, 139, 140
T=1595.00 ns [SCB] MISMATCH @134: got 767, expected 941 for values: 331, 155, 1479, 1098, 1284, 1499, 1049, 634 from BRAM addresses: 134, 135, 136, 137, 138, 139, 140, 141
T=1605.00 ns [SCB] MISMATCH @135: got 875, expected 918 for values: 155, 1479, 1098, 1284, 1499, 1049, 634, 153 from BRAM addresses: 135, 136, 137, 138, 139, 140, 141, 142
T=1615.00 ns [SCB] MISMATCH @136: got 941, expected 1009 for values: 1479, 1098, 1284, 1499, 1049, 634, 153, 876 from BRAM addresses: 136, 137, 138, 139, 140, 141, 142, 143
T=1625.00 ns [SCB] MISMATCH @137: got 918, expected 834 for values: 1098, 1284, 1499, 1049, 634, 153, 876, 80 from BRAM addresses: 137, 138, 139, 140, 141, 142, 143, 144
T=1635.00 ns [SCB] MISMATCH @138: got 1009, expected 772 for values: 1284, 1499, 1049, 634, 153, 876, 80, 607 from BRAM addresses: 138, 139, 140, 141, 142, 143, 144, 145
T=1645.00 ns [SCB] MISMATCH @139: got 834, expected 619 for values: 1499, 1049, 634, 153, 876, 80, 607, 54 from BRAM addresses: 139, 140, 141, 142, 143, 144, 145, 146
T=1655.00 ns [SCB] MISMATCH @140: got 772, expected 468 for values: 1049, 634, 153, 876, 80, 607, 54, 298 from BRAM addresses: 140, 141, 142, 143, 144, 145, 146, 147
T=1665.00 ns [SCB] MISMATCH @141: got 619, expected 472 for values: 634, 153, 876, 80, 607, 54, 298, 1080 from BRAM addresses: 141, 142, 143, 144, 145, 146, 147, 148
T=1675.00 ns [SCB] MISMATCH @142: got 468, expected 399 for values: 153, 876, 80, 607, 54, 298, 1080, 46 from BRAM addresses: 142, 143, 144, 145, 146, 147, 148, 149
T=1685.00 ns [SCB] MISMATCH @143: got 472, expected 423 for values: 876, 80, 607, 54, 298, 1080, 46, 344 from BRAM addresses: 143, 144, 145, 146, 147, 148, 149, 150
T=1695.00 ns [SCB] MISMATCH @144: got 399, expected 373 for values: 80, 607, 54, 298, 1080, 46, 344, 480 from BRAM addresses: 144, 145, 146, 147, 148, 149, 150, 151
T=1705.00 ns [SCB] MISMATCH @145: got 423, expected 425 for values: 607, 54, 298, 1080, 46, 344, 480, 492 from BRAM addresses: 145, 146, 147, 148, 149, 150, 151, 152
T=1715.00 ns [SCB] MISMATCH @146: got 373, expected 378 for values: 54, 298, 1080, 46, 344, 480, 492, 237 from BRAM addresses: 146, 147, 148, 149, 150, 151, 152, 153
T=1725.00 ns [SCB] MISMATCH @147: got 425, expected 551 for values: 298, 1080, 46, 344, 480, 492, 237, 1438 from BRAM addresses: 147, 148, 149, 150, 151, 152, 153, 154
T=1735.00 ns [SCB] MISMATCH @148: got 378, expected 523 for values: 1080, 46, 344, 480, 492, 237, 1438, 71 from BRAM addresses: 148, 149, 150, 151, 152, 153, 154, 155
T=1745.00 ns [SCB] MISMATCH @149: got 551, expected 506 for values: 46, 344, 480, 492, 237, 1438, 71, 943 from BRAM addresses: 149, 150, 151, 152, 153, 154, 155, 156
T=1755.00 ns [SCB] MISMATCH @150: got 523, expected 516 for values: 344, 480, 492, 237, 1438, 71, 943, 130 from BRAM addresses: 150, 151, 152, 153, 154, 155, 156, 157
T=1765.00 ns [SCB] MISMATCH @151: got 506, expected 522 for values: 480, 492, 237, 1438, 71, 943, 130, 390 from BRAM addresses: 151, 152, 153, 154, 155, 156, 157, 158
T=1775.00 ns [SCB] MISMATCH @152: got 516, expected 538 for values: 492, 237, 1438, 71, 943, 130, 390, 605 from BRAM addresses: 152, 153, 154, 155, 156, 157, 158, 159
T=1785.00 ns [SCB] MISMATCH @153: got 522, expected 502 for values: 237, 1438, 71, 943, 130, 390, 605, 206 from BRAM addresses: 153, 154, 155, 156, 157, 158, 159, 160
T=1795.00 ns [SCB] MISMATCH @154: got 538, expected 578 for values: 1438, 71, 943, 130, 390, 605, 206, 847 from BRAM addresses: 154, 155, 156, 157, 158, 159, 160, 161
T=1805.00 ns [SCB] MISMATCH @155: got 502, expected 463 for values: 71, 943, 130, 390, 605, 206, 847, 515 from BRAM addresses: 155, 156, 157, 158, 159, 160, 161, 162
T=1815.00 ns [SCB] MISMATCH @156: got 578, expected 475 for values: 943, 130, 390, 605, 206, 847, 515, 168 from BRAM addresses: 156, 157, 158, 159, 160, 161, 162, 163
